<?xml version="1.0" encoding="UTF-8"?>
<!DOCTYPE svg PUBLIC '-//W3C//DTD SVG 1.0//EN'
          'http://www.w3.org/TR/2001/REC-SVG-20010904/DTD/svg10.dtd'>
<svg fill-opacity="1" xmlns:xlink="http://www.w3.org/1999/xlink" color-rendering="auto" color-interpolation="auto" text-rendering="auto" stroke="black" stroke-linecap="square" stroke-miterlimit="10" shape-rendering="auto" stroke-opacity="1" fill="black" stroke-dasharray="none" font-weight="normal" stroke-width="1" viewBox="0 0 704 269" xmlns="http://www.w3.org/2000/svg" font-family="&apos;Dialog&apos;" font-style="normal" stroke-linejoin="miter" font-size="12" stroke-dashoffset="0" image-rendering="auto"
><!--Generated by Archi with Batik SVG Generator--><defs id="genericDefs"
  /><g
  ><defs id="defs1"
    ><clipPath clipPathUnits="userSpaceOnUse" id="clipPath1"
      ><path d="M249 105 L371 105 L371 162 L249 162 L249 105 Z"
      /></clipPath
      ><clipPath clipPathUnits="userSpaceOnUse" id="clipPath2"
      ><path d="M300 110 L338 110 L338 127 L300 127 L300 110 Z"
      /></clipPath
      ><clipPath clipPathUnits="userSpaceOnUse" id="clipPath3"
      ><path d="M249 9 L695 9 L695 66 L249 66 L249 9 Z"
      /></clipPath
      ><clipPath clipPathUnits="userSpaceOnUse" id="clipPath4"
      ><path d="M460 14 L483 14 L483 31 L460 31 L460 14 Z"
      /></clipPath
      ><clipPath clipPathUnits="userSpaceOnUse" id="clipPath5"
      ><path d="M573 105 L695 105 L695 162 L573 162 L573 105 Z"
      /></clipPath
      ><clipPath clipPathUnits="userSpaceOnUse" id="clipPath6"
      ><path d="M630 110 L655 110 L655 127 L630 127 L630 110 Z"
      /></clipPath
      ><clipPath clipPathUnits="userSpaceOnUse" id="clipPath7"
      ><path d="M9 137 L131 137 L131 194 L9 194 L9 137 Z"
      /></clipPath
      ><clipPath clipPathUnits="userSpaceOnUse" id="clipPath8"
      ><path d="M53 142 L87 142 L87 159 L53 159 L53 142 Z"
      /></clipPath
      ><clipPath clipPathUnits="userSpaceOnUse" id="clipPath9"
      ><path d="M9 63 L131 63 L131 120 L9 120 L9 63 Z"
      /></clipPath
      ><clipPath clipPathUnits="userSpaceOnUse" id="clipPath10"
      ><path d="M62 68 L77 68 L77 85 L62 85 L62 68 Z"
      /></clipPath
      ><clipPath clipPathUnits="userSpaceOnUse" id="clipPath11"
      ><path d="M249 203 L371 203 L371 260 L249 260 L249 203 Z"
      /></clipPath
      ><clipPath clipPathUnits="userSpaceOnUse" id="clipPath12"
      ><path d="M281 208 L339 208 L339 240 L281 240 L281 208 Z"
      /></clipPath
      ><clipPath clipPathUnits="userSpaceOnUse" id="clipPath13"
      ><path d="M412 105 L534 105 L534 162 L412 162 L412 105 Z"
      /></clipPath
      ><clipPath clipPathUnits="userSpaceOnUse" id="clipPath14"
      ><path d="M457 110 L507 110 L507 127 L457 127 L457 110 Z"
      /></clipPath
      ><clipPath clipPathUnits="userSpaceOnUse" id="clipPath15"
      ><path d="M292 53 L329 53 L329 118 L292 118 L292 53 Z"
      /></clipPath
      ><clipPath clipPathUnits="userSpaceOnUse" id="clipPath16"
      ><path d="M302 63 L319 63 L319 76 L302 76 L302 63 Z"
      /></clipPath
      ><clipPath clipPathUnits="userSpaceOnUse" id="clipPath17"
      ><path d="M118 135 L262 135 L262 164 L118 164 L118 135 Z"
      /></clipPath
      ><clipPath clipPathUnits="userSpaceOnUse" id="clipPath18"
      ><path d="M242 145 L252 145 L252 154 L242 154 L242 145 Z"
      /></clipPath
      ><clipPath clipPathUnits="userSpaceOnUse" id="clipPath19"
      ><path d="M117 98 L262 98 L262 127 L117 127 L117 98 Z"
      /></clipPath
      ><clipPath clipPathUnits="userSpaceOnUse" id="clipPath20"
      ><path d="M242 108 L252 108 L252 117 L242 117 L242 108 Z"
      /></clipPath
      ><clipPath clipPathUnits="userSpaceOnUse" id="clipPath21"
      ><path d="M296 149 L325 149 L325 216 L296 216 L296 149 Z"
      /></clipPath
      ><clipPath clipPathUnits="userSpaceOnUse" id="clipPath22"
      ><path d="M306 159 L315 159 L315 169 L306 169 L306 159 Z"
      /></clipPath
      ><clipPath clipPathUnits="userSpaceOnUse" id="clipPath23"
      ><path d="M616 53 L653 53 L653 118 L616 118 L616 53 Z"
      /></clipPath
      ><clipPath clipPathUnits="userSpaceOnUse" id="clipPath24"
      ><path d="M626 63 L643 63 L643 76 L626 76 L626 63 Z"
      /></clipPath
      ><clipPath clipPathUnits="userSpaceOnUse" id="clipPath25"
      ><path d="M455 53 L492 53 L492 118 L455 118 L455 53 Z"
      /></clipPath
      ><clipPath clipPathUnits="userSpaceOnUse" id="clipPath26"
      ><path d="M465 63 L482 63 L482 76 L465 76 L465 63 Z"
      /></clipPath
      ><clipPath clipPathUnits="userSpaceOnUse" id="clipPath27"
      ><path d="M358 149 L661 149 L661 252 L358 252 L358 149 Z"
      /></clipPath
      ><clipPath clipPathUnits="userSpaceOnUse" id="clipPath28"
      ><path d="M642 159 L651 159 L651 169 L642 169 L642 159 Z"
      /></clipPath
      ><clipPath clipPathUnits="userSpaceOnUse" id="clipPath29"
      ><path d="M358 149 L493 149 L493 240 L358 240 L358 149 Z"
      /></clipPath
      ><clipPath clipPathUnits="userSpaceOnUse" id="clipPath30"
      ><path d="M474 159 L483 159 L483 169 L474 169 L474 159 Z"
      /></clipPath
      ><font horiz-adv-x="75.0" id="font1"
      ><font-face ascent="96.67969" font-style="normal" descent="21.09375" units-per-em="100" font-family="Lucida Grande" font-weight="normal"
        /><missing-glyph horiz-adv-x="75.0" d="M12.5 0 L12.5 62.5 L62.5 62.5 L62.5 0 ZM15.625 3.125 L59.375 3.125 L59.375 59.375 L15.625 59.375 Z"
        /><glyph unicode="A" horiz-adv-x="68.99414" d="M45.9473 27.6367 L33.6426 58.7891 L21.2891 27.6367 ZM56.7871 0 L48.9258 20.0195 L18.3105 20.0195 L10.3516 0 L0.8301 0 L29.4922 72.2656 L39.6484 72.2656 L67.8711 0 Z"
        /><glyph unicode="R" horiz-adv-x="63.23242" d="M9.3262 0 L9.3262 72.2656 L31.2012 72.2656 Q41.6016 72.2656 47.1436 67.6758 Q52.6855 63.0859 52.6855 54.3457 Q52.6855 39.8926 38.0859 33.8379 L62.207 0 L49.6094 0 L29.0527 30.5664 L19.4824 30.5664 L19.4824 0 ZM19.4824 38.2324 L22.8027 38.2324 Q42.1387 38.2324 42.1387 53.418 Q42.1387 64.5996 25.9277 64.5996 L19.4824 64.5996 Z"
        /><glyph unicode="B" horiz-adv-x="57.51953" d="M9.3262 0 L9.3262 72.2656 L28.0762 72.2656 Q38.916 72.2656 44.7021 68.1641 Q50.4883 64.0625 50.4883 56.3477 Q50.4883 43.2129 35.6445 37.6465 Q53.3691 32.2266 53.3691 18.0664 Q53.3691 9.2773 47.5098 4.6387 Q41.6504 0 30.6152 0 ZM19.4824 7.666 L21.582 7.666 Q32.8613 7.666 36.1816 9.082 Q42.5293 11.7676 42.5293 19.043 Q42.5293 25.4883 36.7676 29.7607 Q31.0059 34.0332 22.3633 34.0332 L19.4824 34.0332 ZM19.4824 40.5273 L22.7539 40.5273 Q30.957 40.5273 35.4736 44.043 Q39.9902 47.5586 39.9902 53.9551 Q39.9902 64.5996 23.4863 64.5996 L19.4824 64.5996 Z"
        /><glyph unicode="E" horiz-adv-x="54.19922" d="M9.3262 0 L9.3262 72.2656 L49.707 72.2656 L49.707 64.5996 L19.5801 64.5996 L19.5801 41.4062 L44.8242 41.4062 L44.8242 33.8379 L19.5801 33.8379 L19.5801 7.666 L51.8066 7.666 L51.8066 0 Z"
        /><glyph unicode="S" horiz-adv-x="53.85742" d="M23.4863 -1.8066 Q16.2109 -1.8066 4.8828 1.3672 L4.8828 11.5234 Q17.0898 5.8594 24.9512 5.8594 Q31.0059 5.8594 34.6924 9.0332 Q38.3789 12.207 38.3789 17.3828 Q38.3789 21.6309 35.9619 24.6094 Q33.5449 27.5879 27.0508 31.25 L22.0703 34.1309 Q12.8418 39.4043 9.0576 44.0674 Q5.2734 48.7305 5.2734 54.9316 Q5.2734 63.2812 11.3281 68.6768 Q17.3828 74.0723 26.7578 74.0723 Q35.1074 74.0723 44.3848 71.2891 L44.3848 61.9141 Q32.959 66.4062 27.3438 66.4062 Q22.0215 66.4062 18.5547 63.5742 Q15.0879 60.7422 15.0879 56.4453 Q15.0879 52.832 17.627 50.0488 Q20.166 47.2656 26.9043 43.4082 L32.0801 40.4785 Q41.4551 35.1562 45.166 30.4199 Q48.877 25.6836 48.877 19.043 Q48.877 9.6191 41.9189 3.9062 Q34.9609 -1.8066 23.4863 -1.8066 Z"
        /><glyph unicode="G" horiz-adv-x="72.265625" d="M63.623 1.9531 Q50.4883 -1.8066 40.7227 -1.8066 Q23.4863 -1.8066 14.2822 8.0078 Q5.0781 17.8223 5.0781 36.1328 Q5.0781 54.1016 14.4043 64.0869 Q23.7305 74.0723 40.5762 74.0723 Q51.6113 74.0723 63.5254 70.8008 L63.5254 61.3281 Q48.584 66.4062 40.625 66.4062 Q28.9062 66.4062 22.4365 58.4473 Q15.9668 50.4883 15.9668 36.0352 Q15.9668 21.7285 22.9004 13.7939 Q29.834 5.8594 42.334 5.8594 Q47.4609 5.8594 53.418 7.666 L53.418 31.2012 L63.623 31.2012 Z"
        /><glyph unicode="I" horiz-adv-x="28.808594" d="M9.2773 0 L9.2773 72.2656 L19.5312 72.2656 L19.5312 0 Z"
        /><glyph unicode="T" horiz-adv-x="63.23242" d="M26.5137 0 L26.5137 64.5996 L0.8789 64.5996 L0.8789 72.2656 L62.4023 72.2656 L62.4023 64.5996 L36.7676 64.5996 L36.7676 0 Z"
        /><glyph unicode="P" horiz-adv-x="55.273438" d="M9.3262 0 L9.3262 72.2656 L29.0039 72.2656 Q42.0898 72.2656 47.8027 67.8467 Q53.5156 63.4277 53.5156 53.3203 Q53.5156 41.7969 45.7031 35.2539 Q37.8906 28.7109 24.0234 28.7109 L19.4824 28.7109 L19.4824 0 ZM19.4824 36.4746 L23.6328 36.4746 Q32.7637 36.4746 37.7441 40.6738 Q42.7246 44.873 42.7246 52.5391 Q42.7246 59.0332 38.8184 61.8164 Q34.9121 64.5996 25.7812 64.5996 L19.4824 64.5996 Z"
        /><glyph unicode="F" horiz-adv-x="53.61328" d="M9.3262 0 L9.3262 72.2656 L49.707 72.2656 L49.707 64.5996 L19.5801 64.5996 L19.5801 40.3809 L44.873 40.3809 L44.873 32.8125 L19.5801 32.8125 L19.5801 0 Z"
        /><glyph unicode="D" horiz-adv-x="74.90234" d="M9.3262 0 L9.3262 72.2656 L33.3496 72.2656 Q44.0918 72.2656 50.708 69.873 Q57.3242 67.4805 62.1582 61.7676 Q69.8242 52.6855 69.8242 37.8418 Q69.8242 19.8242 60.3027 9.9121 Q50.7812 0 33.4961 0 ZM19.5801 7.666 L32.7148 7.666 Q46.7773 7.666 52.6367 15.2344 Q58.9355 23.291 58.9355 36.8652 Q58.9355 49.6094 52.7344 56.8848 Q48.9746 61.3281 43.75 62.9639 Q38.5254 64.5996 28.0273 64.5996 L19.5801 64.5996 Z"
        /><glyph unicode=" " horiz-adv-x="31.640625" d=""
        /><glyph unicode=")" horiz-adv-x="32.51953" d="M3.6133 -7.8125 L3.6133 -14.4531 Q14.1602 -7.2754 20.3369 5.0537 Q26.5137 17.3828 26.5137 31.3477 Q26.5137 45.2637 20.3369 57.5928 Q14.1602 69.9219 3.6133 77.0996 L3.6133 70.459 Q10.791 62.6465 13.8428 53.6621 Q16.8945 44.6777 16.8945 31.3477 Q16.8945 17.9688 13.8428 8.9844 Q10.791 0 3.6133 -7.8125 Z"
        /><glyph unicode="e" horiz-adv-x="55.71289" d="M48.4863 1.709 Q38.8184 -1.2207 31.9336 -1.2207 Q20.2148 -1.2207 12.8174 6.5674 Q5.4199 14.3555 5.4199 26.7578 Q5.4199 38.8184 11.9385 46.5332 Q18.457 54.248 28.6133 54.248 Q38.2324 54.248 43.4814 47.4121 Q48.7305 40.5762 48.7305 27.9785 L48.6816 25 L15.2344 25 Q17.334 6.1035 33.7402 6.1035 Q39.7461 6.1035 48.4863 9.3262 ZM15.6738 32.2266 L39.0625 32.2266 Q39.0625 47.0215 28.0273 47.0215 Q16.9434 47.0215 15.6738 32.2266 Z"
        /><glyph unicode="l" horiz-adv-x="28.90625" d="M9.6191 0 L9.6191 77.0996 L19.2383 77.0996 L19.2383 0 Z"
        /><glyph unicode="c" horiz-adv-x="51.220703" d="M30.3223 -1.2207 Q19.5801 -1.2207 12.5 6.7383 Q5.4199 14.6973 5.4199 26.8066 Q5.4199 39.7461 12.4268 46.9727 Q19.4336 54.1992 31.9824 54.1992 Q38.1836 54.1992 45.8496 52.4902 L45.8496 44.4336 Q37.6953 46.8262 32.5684 46.8262 Q25.1953 46.8262 20.7275 41.2842 Q16.2598 35.7422 16.2598 26.5137 Q16.2598 17.5781 20.8496 12.0605 Q25.4395 6.543 32.8613 6.543 Q39.4531 6.543 46.4355 9.9121 L46.4355 1.6113 Q37.1094 -1.2207 30.3223 -1.2207 Z"
        /><glyph unicode="a" horiz-adv-x="55.22461" d="M36.9629 6.7383 Q28.3203 -1.2207 20.3125 -1.2207 Q13.7207 -1.2207 9.375 2.9053 Q5.0293 7.0312 5.0293 13.3301 Q5.0293 22.0215 12.3291 26.6846 Q19.6289 31.3477 33.252 31.3477 L35.5469 31.3477 L35.5469 37.7441 Q35.5469 46.9727 26.0742 46.9727 Q18.457 46.9727 9.6191 42.2852 L9.6191 50.2441 Q19.3359 54.1992 27.832 54.1992 Q36.7188 54.1992 40.9424 50.1953 Q45.166 46.1914 45.166 37.7441 L45.166 13.7207 Q45.166 5.4688 50.2441 5.4688 Q50.8789 5.4688 52.0996 5.6641 L52.7832 0.3418 Q49.5117 -1.2207 45.5566 -1.2207 Q38.8184 -1.2207 36.9629 6.7383 ZM35.5469 11.9629 L35.5469 25.6836 L32.3242 25.7812 Q24.4141 25.7812 19.5312 22.7783 Q14.6484 19.7754 14.6484 14.8926 Q14.6484 11.4258 17.0898 9.0332 Q19.5312 6.6406 23.0469 6.6406 Q29.0527 6.6406 35.5469 11.9629 Z"
        /><glyph unicode="r" horiz-adv-x="40.91797" d="M9.6191 0 L9.6191 53.0273 L19.2383 53.0273 L19.2383 43.0664 Q24.9512 54.1992 35.8398 54.1992 Q37.3047 54.1992 38.916 53.9551 L38.916 44.9707 Q36.4258 45.8008 34.5215 45.8008 Q25.3906 45.8008 19.2383 34.9609 L19.2383 0 Z"
        /><glyph unicode="O" horiz-adv-x="77.68555" d="M38.4277 -1.8066 Q23.3887 -1.8066 14.2334 8.6182 Q5.0781 19.043 5.0781 36.1816 Q5.0781 53.418 14.2822 63.7451 Q23.4863 74.0723 38.8672 74.0723 Q54.1992 74.0723 63.4277 63.7695 Q72.6562 53.4668 72.6562 36.2793 Q72.6562 18.75 63.4277 8.4717 Q54.1992 -1.8066 38.4277 -1.8066 ZM38.5742 5.8594 Q49.6582 5.8594 55.7129 13.8428 Q61.7676 21.8262 61.7676 36.377 Q61.7676 50.4883 55.6885 58.4473 Q49.6094 66.4062 38.8672 66.4062 Q28.0762 66.4062 22.0215 58.4229 Q15.9668 50.4395 15.9668 36.2305 Q15.9668 22.0703 21.9727 13.9648 Q27.9785 5.8594 38.5742 5.8594 Z"
        /><glyph unicode="(" horiz-adv-x="32.51953" d="M28.9062 -7.8125 L28.9062 -14.4531 Q18.3594 -7.2754 12.1826 5.0537 Q6.0059 17.3828 6.0059 31.3477 Q6.0059 45.2637 12.1826 57.5928 Q18.3594 69.9219 28.9062 77.0996 L28.9062 70.459 Q21.7285 62.6465 18.6768 53.6621 Q15.625 44.6777 15.625 31.3477 Q15.625 17.9688 18.6768 8.9844 Q21.7285 0 28.9062 -7.8125 Z"
        /><glyph unicode="i" horiz-adv-x="28.90625" d="M9.6191 0 L9.6191 53.0273 L19.2383 53.0273 L19.2383 0 ZM9.6191 62.6465 L9.6191 72.2656 L19.2383 72.2656 L19.2383 62.6465 Z"
        /><glyph unicode="n" horiz-adv-x="62.060547" d="M9.6191 0 L9.6191 53.0273 L19.2383 53.0273 L19.2383 43.0664 Q26.8555 54.1992 37.8906 54.1992 Q44.7754 54.1992 48.877 49.8291 Q52.9785 45.459 52.9785 38.0859 L52.9785 0 L43.3594 0 L43.3594 34.9609 Q43.3594 40.8691 41.626 43.3838 Q39.8926 45.8984 35.8887 45.8984 Q27.0508 45.8984 19.2383 34.3262 L19.2383 0 Z"
        /><glyph unicode="o" horiz-adv-x="61.42578" d="M30.3711 -1.2207 Q18.9941 -1.2207 12.207 6.3232 Q5.4199 13.8672 5.4199 26.5137 Q5.4199 39.3066 12.2314 46.7529 Q19.043 54.1992 30.7129 54.1992 Q42.3828 54.1992 49.1943 46.7529 Q56.0059 39.3066 56.0059 26.6113 Q56.0059 13.623 49.1699 6.2012 Q42.334 -1.2207 30.3711 -1.2207 ZM30.5176 6.0059 Q45.8008 6.0059 45.8008 26.6113 Q45.8008 46.9727 30.7129 46.9727 Q15.6738 46.9727 15.6738 26.5137 Q15.6738 6.0059 30.5176 6.0059 Z"
        /><glyph unicode="f" horiz-adv-x="36.76758" d="M21.0938 45.8008 L21.0938 0 L11.4258 0 L11.4258 45.8008 L3.9062 45.8008 L3.9062 53.0273 L11.4258 53.0273 L11.4258 59.375 Q11.4258 78.3203 28.7109 78.3203 Q33.5449 78.3203 39.6973 76.709 L39.6973 69.0918 Q33.2031 71.0938 29.2969 71.0938 Q24.5605 71.0938 22.8271 68.8232 Q21.0938 66.5527 21.0938 60.4004 L21.0938 53.0273 L34.3262 53.0273 L34.3262 45.8008 Z"
      /></font
    ></defs
    ><g fill="rgb(181,255,255)" text-rendering="optimizeLegibility" font-family="&apos;Lucida Grande&apos;" stroke-linejoin="round" stroke="rgb(181,255,255)" stroke-width="0" stroke-miterlimit="0"
    ><rect x="260" width="110" height="55" y="106" clip-path="url(#clipPath1)" stroke="none"
    /></g
    ><g fill="rgb(126,178,178)" text-rendering="optimizeLegibility" font-family="&apos;Lucida Grande&apos;" stroke-linecap="butt" stroke="rgb(126,178,178)"
    ><line y2="106" fill="none" x1="260" clip-path="url(#clipPath1)" x2="260" y1="116"
      /><line y2="106" fill="none" x1="260" clip-path="url(#clipPath1)" x2="369" y1="106"
      /><line y2="160" fill="none" x1="369" clip-path="url(#clipPath1)" x2="369" y1="106"
      /><line y2="160" fill="none" x1="369" clip-path="url(#clipPath1)" x2="260" y1="160"
      /><line y2="148" fill="none" x1="260" clip-path="url(#clipPath1)" x2="260" y1="160"
      /><line y2="136" fill="none" x1="260" clip-path="url(#clipPath1)" x2="260" y1="128"
      /><rect x="250" y="116" clip-path="url(#clipPath1)" fill="rgb(162,229,229)" width="21" height="13" stroke="none"
      /><rect x="250" y="136" clip-path="url(#clipPath1)" fill="rgb(162,229,229)" width="21" height="13" stroke="none"
      /><rect fill="none" x="250" width="20" height="12" y="116" clip-path="url(#clipPath1)"
      /><rect fill="none" x="250" width="20" height="12" y="136" clip-path="url(#clipPath1)"
      /><text fill="black" x="301" xml:space="preserve" y="123" clip-path="url(#clipPath2)" stroke="none"
      >SEBRA</text
      ><rect x="250" y="10" clip-path="url(#clipPath3)" fill="rgb(255,214,254)" width="444" rx="10" ry="10" height="55" stroke="none"
      /><rect x="250" y="10" clip-path="url(#clipPath3)" fill="none" width="443" rx="10" ry="10" height="54" stroke="rgb(178,149,177)"
      /><rect x="673" y="17" clip-path="url(#clipPath3)" fill="none" width="16" rx="4" ry="4" height="9" stroke="black"
      /><text fill="black" x="461" xml:space="preserve" y="27" clip-path="url(#clipPath4)" stroke="none"
      >IGA</text
      ><rect x="584" y="106" clip-path="url(#clipPath5)" fill="rgb(181,255,255)" width="110" height="55" stroke="none"
      /><line y2="106" fill="none" x1="584" clip-path="url(#clipPath5)" x2="584" y1="116"
      /><line y2="106" fill="none" x1="584" clip-path="url(#clipPath5)" x2="693" y1="106"
      /><line y2="160" fill="none" x1="693" clip-path="url(#clipPath5)" x2="693" y1="106"
      /><line y2="160" fill="none" x1="693" clip-path="url(#clipPath5)" x2="584" y1="160"
      /><line y2="148" fill="none" x1="584" clip-path="url(#clipPath5)" x2="584" y1="160"
      /><line y2="136" fill="none" x1="584" clip-path="url(#clipPath5)" x2="584" y1="128"
      /><rect x="574" y="116" clip-path="url(#clipPath5)" fill="rgb(162,229,229)" width="21" height="13" stroke="none"
      /><rect x="574" y="136" clip-path="url(#clipPath5)" fill="rgb(162,229,229)" width="21" height="13" stroke="none"
      /><rect fill="none" x="574" width="20" height="12" y="116" clip-path="url(#clipPath5)"
      /><rect fill="none" x="574" width="20" height="12" y="136" clip-path="url(#clipPath5)"
      /><text fill="black" x="631" xml:space="preserve" y="123" clip-path="url(#clipPath6)" stroke="none"
      >TAS</text
      ><rect x="10" y="138" clip-path="url(#clipPath7)" fill="rgb(181,255,255)" width="120" rx="10" ry="10" height="55" stroke="none"
      /><rect x="10" y="138" clip-path="url(#clipPath7)" fill="none" width="119" rx="10" ry="10" height="54"
      /><rect x="109" y="145" clip-path="url(#clipPath7)" fill="none" width="16" rx="4" ry="4" height="9" stroke="black"
      /><text fill="black" x="54" xml:space="preserve" y="155" clip-path="url(#clipPath8)" stroke="none"
      >PAGA</text
      ><rect x="10" y="64" clip-path="url(#clipPath9)" fill="rgb(181,255,255)" width="120" rx="10" ry="10" height="55" stroke="none"
      /><rect x="10" y="64" clip-path="url(#clipPath9)" fill="none" width="119" rx="10" ry="10" height="54"
      /><rect x="109" y="71" clip-path="url(#clipPath9)" fill="none" width="16" rx="4" ry="4" height="9" stroke="black"
      /><text fill="black" x="63" xml:space="preserve" y="81" clip-path="url(#clipPath10)" stroke="none"
      >FS</text
      ><rect x="250" y="204" clip-path="url(#clipPath11)" fill="rgb(201,231,183)" width="120" rx="10" ry="10" height="55" stroke="none"
      /><rect x="250" y="204" clip-path="url(#clipPath11)" fill="none" width="119" rx="10" ry="10" height="54" stroke="rgb(140,161,128)"
      /><rect x="349" y="211" clip-path="url(#clipPath11)" fill="none" width="16" rx="4" ry="4" height="9" stroke="black"
      /><text fill="black" x="282" xml:space="preserve" y="221" clip-path="url(#clipPath12)" stroke="none"
      >SEBRA DB</text
      ><text fill="black" x="287" xml:space="preserve" y="236" clip-path="url(#clipPath12)" stroke="none"
      >(Oracle)</text
      ><rect x="423" y="106" clip-path="url(#clipPath13)" fill="rgb(181,255,255)" width="110" height="55" stroke="none"
      /><line y2="106" fill="none" x1="423" clip-path="url(#clipPath13)" x2="423" y1="116"
      /><line y2="106" fill="none" x1="423" clip-path="url(#clipPath13)" x2="532" y1="106"
      /><line y2="160" fill="none" x1="532" clip-path="url(#clipPath13)" x2="532" y1="106"
      /><line y2="160" fill="none" x1="532" clip-path="url(#clipPath13)" x2="423" y1="160"
      /><line y2="148" fill="none" x1="423" clip-path="url(#clipPath13)" x2="423" y1="160"
      /><line y2="136" fill="none" x1="423" clip-path="url(#clipPath13)" x2="423" y1="128"
      /><rect x="413" y="116" clip-path="url(#clipPath13)" fill="rgb(162,229,229)" width="21" height="13" stroke="none"
      /><rect x="413" y="136" clip-path="url(#clipPath13)" fill="rgb(162,229,229)" width="21" height="13" stroke="none"
      /><rect fill="none" x="413" width="20" height="12" y="116" clip-path="url(#clipPath13)"
      /><rect fill="none" x="413" width="20" height="12" y="136" clip-path="url(#clipPath13)"
      /><text fill="black" x="458" xml:space="preserve" y="123" clip-path="url(#clipPath14)" stroke="none"
      >Telefoni</text
    ></g
    ><g text-rendering="optimizeLegibility" font-size="13" stroke-dasharray="2" stroke-linecap="butt"
    ><line y2="64" fill="none" x1="310" clip-path="url(#clipPath15)" x2="310" y1="106"
      /><polygon fill="white" clip-path="url(#clipPath16)" points=" 310 64 317 74 303 74" stroke="none"
      /><polygon fill="none" stroke-dasharray="none" clip-path="url(#clipPath16)" points=" 310 64 317 74 303 74"
      /><line clip-path="url(#clipPath17)" fill="none" x1="129" x2="250" y1="149" y2="149" stroke-dasharray="6,3"
      /><polygon stroke-dasharray="6,3" clip-path="url(#clipPath18)" points=" 250 149 243 152 243 146" stroke="none"
      /><polygon fill="none" stroke-dasharray="none" clip-path="url(#clipPath18)" points=" 250 149 243 152 243 146"
      /><line clip-path="url(#clipPath19)" fill="none" x1="128" x2="250" y1="112" y2="112" stroke-dasharray="6,3"
      /><polygon stroke-dasharray="6,3" clip-path="url(#clipPath20)" points=" 250 112 243 115 243 109" stroke="none"
      /><polygon fill="none" stroke-dasharray="none" clip-path="url(#clipPath20)" points=" 250 112 243 115 243 109"
      /><line clip-path="url(#clipPath21)" fill="none" x1="310" x2="310" y1="204" y2="160" stroke-dasharray="none"
      /><line clip-path="url(#clipPath22)" fill="none" x1="313" x2="310" y1="167" y2="160" stroke-dasharray="none"
      /><line clip-path="url(#clipPath22)" fill="none" x1="310" x2="307" y1="160" y2="167" stroke-dasharray="none"
      /><line y2="64" fill="none" x1="634" clip-path="url(#clipPath23)" x2="634" y1="106"
      /><polygon fill="white" clip-path="url(#clipPath24)" points=" 634 64 641 74 627 74" stroke="none"
      /><polygon fill="none" stroke-dasharray="none" clip-path="url(#clipPath24)" points=" 634 64 641 74 627 74"
      /><line y2="64" fill="none" x1="473" clip-path="url(#clipPath25)" x2="473" y1="106"
      /><polygon fill="white" clip-path="url(#clipPath26)" points=" 473 64 480 74 466 74" stroke="none"
      /><polygon fill="none" stroke-dasharray="none" clip-path="url(#clipPath26)" points=" 473 64 480 74 466 74"
      /><line clip-path="url(#clipPath27)" fill="none" x1="369" x2="636" y1="240" y2="240" stroke-dasharray="none"
      /><line clip-path="url(#clipPath27)" fill="none" x1="636" x2="637" y1="240" y2="240" stroke-dasharray="none"
      /><line clip-path="url(#clipPath27)" fill="none" x1="637" x2="638" y1="240" y2="240" stroke-dasharray="none"
      /><line clip-path="url(#clipPath27)" fill="none" x1="638" x2="639" y1="240" y2="239" stroke-dasharray="none"
      /><line clip-path="url(#clipPath27)" fill="none" x1="639" x2="640" y1="239" y2="239" stroke-dasharray="none"
      /><line clip-path="url(#clipPath27)" fill="none" x1="640" x2="641" y1="239" y2="239" stroke-dasharray="none"
      /><line clip-path="url(#clipPath27)" fill="none" x1="641" x2="642" y1="239" y2="238" stroke-dasharray="none"
      /><line clip-path="url(#clipPath27)" fill="none" x1="642" x2="643" y1="238" y2="237" stroke-dasharray="none"
      /><line clip-path="url(#clipPath27)" fill="none" x1="643" x2="643" y1="237" y2="237" stroke-dasharray="none"
      /><line clip-path="url(#clipPath27)" fill="none" x1="643" x2="644" y1="237" y2="236" stroke-dasharray="none"
      /><line clip-path="url(#clipPath27)" fill="none" x1="644" x2="645" y1="236" y2="235" stroke-dasharray="none"
      /><line clip-path="url(#clipPath27)" fill="none" x1="645" x2="645" y1="235" y2="234" stroke-dasharray="none"
      /><line clip-path="url(#clipPath27)" fill="none" x1="645" x2="645" y1="234" y2="233" stroke-dasharray="none"
      /><line clip-path="url(#clipPath27)" fill="none" x1="645" x2="646" y1="233" y2="232" stroke-dasharray="none"
      /><line clip-path="url(#clipPath27)" fill="none" x1="646" x2="646" y1="232" y2="231" stroke-dasharray="none"
      /><line clip-path="url(#clipPath27)" fill="none" x1="646" x2="646" y1="231" y2="230" stroke-dasharray="none"
      /><line clip-path="url(#clipPath27)" fill="none" x1="646" x2="646" y1="230" y2="160" stroke-dasharray="none"
      /><line clip-path="url(#clipPath28)" fill="none" x1="649" x2="646" y1="167" y2="160" stroke-dasharray="none"
      /><line clip-path="url(#clipPath28)" fill="none" x1="646" x2="643" y1="160" y2="167" stroke-dasharray="none"
      /><line clip-path="url(#clipPath29)" fill="none" x1="369" x2="468" y1="228" y2="228" stroke-dasharray="none"
      /><line clip-path="url(#clipPath29)" fill="none" x1="468" x2="469" y1="228" y2="228" stroke-dasharray="none"
      /><line clip-path="url(#clipPath29)" fill="none" x1="469" x2="470" y1="228" y2="228" stroke-dasharray="none"
      /><line clip-path="url(#clipPath29)" fill="none" x1="470" x2="471" y1="228" y2="227" stroke-dasharray="none"
      /><line clip-path="url(#clipPath29)" fill="none" x1="471" x2="472" y1="227" y2="227" stroke-dasharray="none"
      /><line clip-path="url(#clipPath29)" fill="none" x1="472" x2="473" y1="227" y2="227" stroke-dasharray="none"
      /><line clip-path="url(#clipPath29)" fill="none" x1="473" x2="474" y1="227" y2="226" stroke-dasharray="none"
      /><line clip-path="url(#clipPath29)" fill="none" x1="474" x2="475" y1="226" y2="225" stroke-dasharray="none"
      /><line clip-path="url(#clipPath29)" fill="none" x1="475" x2="475" y1="225" y2="225" stroke-dasharray="none"
      /><line clip-path="url(#clipPath29)" fill="none" x1="475" x2="476" y1="225" y2="224" stroke-dasharray="none"
      /><line clip-path="url(#clipPath29)" fill="none" x1="476" x2="477" y1="224" y2="223" stroke-dasharray="none"
      /><line clip-path="url(#clipPath29)" fill="none" x1="477" x2="477" y1="223" y2="222" stroke-dasharray="none"
      /><line clip-path="url(#clipPath29)" fill="none" x1="477" x2="477" y1="222" y2="221" stroke-dasharray="none"
      /><line clip-path="url(#clipPath29)" fill="none" x1="477" x2="478" y1="221" y2="220" stroke-dasharray="none"
      /><line clip-path="url(#clipPath29)" fill="none" x1="478" x2="478" y1="220" y2="219" stroke-dasharray="none"
      /><line clip-path="url(#clipPath29)" fill="none" x1="478" x2="478" y1="219" y2="218" stroke-dasharray="none"
      /><line clip-path="url(#clipPath29)" fill="none" x1="478" x2="478" y1="218" y2="160" stroke-dasharray="none"
      /><line clip-path="url(#clipPath30)" fill="none" x1="481" x2="478" y1="167" y2="160" stroke-dasharray="none"
      /><line clip-path="url(#clipPath30)" fill="none" x1="478" x2="475" y1="160" y2="167" stroke-dasharray="none"
    /></g
  ></g
></svg
>
