<?xml version="1.0" encoding="UTF-8"?>
<!DOCTYPE svg PUBLIC '-//W3C//DTD SVG 1.0//EN'
          'http://www.w3.org/TR/2001/REC-SVG-20010904/DTD/svg10.dtd'>
<svg fill-opacity="1" xmlns:xlink="http://www.w3.org/1999/xlink" color-rendering="auto" color-interpolation="auto" text-rendering="auto" stroke="black" stroke-linecap="square" stroke-miterlimit="10" shape-rendering="auto" stroke-opacity="1" fill="black" stroke-dasharray="none" font-weight="normal" stroke-width="1" viewBox="0 0 597 233" xmlns="http://www.w3.org/2000/svg" font-family="&apos;Dialog&apos;" font-style="normal" stroke-linejoin="miter" font-size="12" stroke-dashoffset="0" image-rendering="auto"
><!--Generated by Archi with Batik SVG Generator--><defs id="genericDefs"
  /><g
  ><defs id="defs1"
    ><clipPath clipPathUnits="userSpaceOnUse" id="clipPath1"
      ><path d="M466 9 L588 9 L588 66 L466 66 L466 9 Z"
      /></clipPath
      ><clipPath clipPathUnits="userSpaceOnUse" id="clipPath2"
      ><path d="M494 14 L559 14 L559 46 L494 46 L494 14 Z"
      /></clipPath
      ><clipPath clipPathUnits="userSpaceOnUse" id="clipPath3"
      ><path d="M9 9 L227 9 L227 146 L9 146 L9 9 Z"
      /></clipPath
      ><clipPath clipPathUnits="userSpaceOnUse" id="clipPath4"
      ><path d="M108 14 L146 14 L146 31 L108 31 L108 14 Z"
      /></clipPath
      ><clipPath clipPathUnits="userSpaceOnUse" id="clipPath5"
      ><path d="M81 69 L203 69 L203 126 L81 126 L81 69 Z"
      /></clipPath
      ><clipPath clipPathUnits="userSpaceOnUse" id="clipPath6"
      ><path d="M117 74 L185 74 L185 91 L117 91 L117 74 Z"
      /></clipPath
      ><clipPath clipPathUnits="userSpaceOnUse" id="clipPath7"
      ><path d="M106 167 L228 167 L228 224 L106 224 L106 167 Z"
      /></clipPath
      ><clipPath clipPathUnits="userSpaceOnUse" id="clipPath8"
      ><path d="M129 180 L204 180 L204 197 L129 197 L129 180 Z"
      /></clipPath
      ><clipPath clipPathUnits="userSpaceOnUse" id="clipPath9"
      ><path d="M322 9 L444 9 L444 66 L322 66 L322 9 Z"
      /></clipPath
      ><clipPath clipPathUnits="userSpaceOnUse" id="clipPath10"
      ><path d="M354 14 L412 14 L412 46 L354 46 L354 14 Z"
      /></clipPath
      ><clipPath clipPathUnits="userSpaceOnUse" id="clipPath11"
      ><path d="M214 23 L335 23 L335 52 L214 52 L214 23 Z"
      /></clipPath
      ><clipPath clipPathUnits="userSpaceOnUse" id="clipPath12"
      ><path d="M224 33 L234 33 L234 42 L224 42 L224 33 Z"
      /></clipPath
      ><clipPath clipPathUnits="userSpaceOnUse" id="clipPath13"
      ><path d="M215 53 L347 53 L347 207 L215 207 L215 53 Z"
      /></clipPath
      ><clipPath clipPathUnits="userSpaceOnUse" id="clipPath14"
      ><path d="M225 188 L235 188 L235 197 L225 197 L225 188 Z"
      /></clipPath
      ><clipPath clipPathUnits="userSpaceOnUse" id="clipPath15"
      ><path d="M140 113 L169 113 L169 180 L140 180 L140 113 Z"
      /></clipPath
      ><clipPath clipPathUnits="userSpaceOnUse" id="clipPath16"
      ><path d="M150 123 L159 123 L159 133 L150 133 L150 123 Z"
      /></clipPath
      ><font horiz-adv-x="75.0" id="font1"
      ><font-face ascent="96.67969" font-style="normal" descent="21.09375" units-per-em="100" font-family="Lucida Grande" font-weight="normal"
        /><missing-glyph horiz-adv-x="75.0" d="M12.5 0 L12.5 62.5 L62.5 62.5 L62.5 0 ZM15.625 3.125 L59.375 3.125 L59.375 59.375 L15.625 59.375 Z"
        /><glyph unicode="e" horiz-adv-x="55.71289" d="M48.4863 1.709 Q38.8184 -1.2207 31.9336 -1.2207 Q20.2148 -1.2207 12.8174 6.5674 Q5.4199 14.3555 5.4199 26.7578 Q5.4199 38.8184 11.9385 46.5332 Q18.457 54.248 28.6133 54.248 Q38.2324 54.248 43.4814 47.4121 Q48.7305 40.5762 48.7305 27.9785 L48.6816 25 L15.2344 25 Q17.334 6.1035 33.7402 6.1035 Q39.7461 6.1035 48.4863 9.3262 ZM15.6738 32.2266 L39.0625 32.2266 Q39.0625 47.0215 28.0273 47.0215 Q16.9434 47.0215 15.6738 32.2266 Z"
        /><glyph unicode="d" horiz-adv-x="62.939453" d="M43.6523 0 L43.6523 9.9609 Q37.793 -1.2207 25.9766 -1.2207 Q16.4062 -1.2207 10.9131 5.7617 Q5.4199 12.7441 5.4199 24.8535 Q5.4199 38.0859 11.6455 46.1426 Q17.8711 54.1992 28.0273 54.1992 Q37.4512 54.1992 43.6523 46.9727 L43.6523 77.0996 L53.3203 77.0996 L53.3203 0 ZM43.6523 40.3809 Q36.1816 46.9727 29.4922 46.9727 Q15.6738 46.9727 15.6738 25.8301 Q15.6738 7.2266 27.9785 7.2266 Q35.9863 7.2266 43.6523 15.9668 Z"
        /><glyph unicode="å" horiz-adv-x="55.22461" d="M36.9629 6.7383 Q28.3203 -1.2207 20.3125 -1.2207 Q13.7207 -1.2207 9.375 2.9053 Q5.0293 7.0312 5.0293 13.3301 Q5.0293 22.0215 12.3291 26.6846 Q19.6289 31.3477 33.252 31.3477 L35.5469 31.3477 L35.5469 37.7441 Q35.5469 46.9727 26.0742 46.9727 Q18.457 46.9727 9.6191 42.2852 L9.6191 50.2441 Q19.3359 54.1992 27.832 54.1992 Q36.7188 54.1992 40.9424 50.1953 Q45.166 46.1914 45.166 37.7441 L45.166 13.7207 Q45.166 5.4688 50.2441 5.4688 Q50.8789 5.4688 52.0996 5.6641 L52.7832 0.3418 Q49.5117 -1.2207 45.5566 -1.2207 Q38.8184 -1.2207 36.9629 6.7383 ZM35.5469 11.9629 L35.5469 25.6836 L32.3242 25.7812 Q24.4141 25.7812 19.5312 22.7783 Q14.6484 19.7754 14.6484 14.8926 Q14.6484 11.4258 17.0898 9.0332 Q19.5312 6.6406 23.0469 6.6406 Q29.0527 6.6406 35.5469 11.9629 ZM27.7832 62.6465 Q23.2422 62.6465 20.0439 65.8936 Q16.8457 69.1406 16.8457 73.7305 Q16.8457 78.3203 20.0684 81.5674 Q23.291 84.8145 27.9297 84.8145 Q32.5195 84.8145 35.7666 81.5918 Q39.0137 78.3691 39.0137 73.7305 Q39.0137 69.043 35.7666 65.8447 Q32.5195 62.6465 27.7832 62.6465 ZM27.832 66.8457 Q30.7617 66.8457 32.7881 68.8477 Q34.8145 70.8496 34.8145 73.7793 Q34.8145 76.6113 32.7881 78.6133 Q30.7617 80.6152 27.9297 80.6152 Q25.0488 80.6152 23.0469 78.6133 Q21.0449 76.6113 21.0449 73.7305 Q21.0449 70.8984 23.0469 68.8721 Q25.0488 66.8457 27.832 66.8457 Z"
        /><glyph unicode="r" horiz-adv-x="40.91797" d="M9.6191 0 L9.6191 53.0273 L19.2383 53.0273 L19.2383 43.0664 Q24.9512 54.1992 35.8398 54.1992 Q37.3047 54.1992 38.916 53.9551 L38.916 44.9707 Q36.4258 45.8008 34.5215 45.8008 Q25.3906 45.8008 19.2383 34.9609 L19.2383 0 Z"
        /><glyph unicode="m" horiz-adv-x="93.359375" d="M9.6191 0 L9.6191 53.0273 L19.2383 53.0273 L19.2383 43.0664 Q26.2695 54.1992 37.3047 54.1992 Q47.9492 54.1992 51.8066 43.0664 Q58.6426 54.248 69.5801 54.248 Q76.6113 54.248 80.4688 50.1221 Q84.3262 45.9961 84.3262 38.5742 L84.3262 0 L74.6582 0 L74.6582 37.0605 Q74.6582 46.1426 67.4805 46.1426 Q60.0098 46.1426 51.8066 35.5469 L51.8066 0 L42.1387 0 L42.1387 37.0605 Q42.1387 46.1914 34.8145 46.1914 Q27.5391 46.1914 19.2383 35.5469 L19.2383 0 Z"
        /><glyph unicode="o" horiz-adv-x="61.42578" d="M30.3711 -1.2207 Q18.9941 -1.2207 12.207 6.3232 Q5.4199 13.8672 5.4199 26.5137 Q5.4199 39.3066 12.2314 46.7529 Q19.043 54.1992 30.7129 54.1992 Q42.3828 54.1992 49.1943 46.7529 Q56.0059 39.3066 56.0059 26.6113 Q56.0059 13.623 49.1699 6.2012 Q42.334 -1.2207 30.3711 -1.2207 ZM30.5176 6.0059 Q45.8008 6.0059 45.8008 26.6113 Q45.8008 46.9727 30.7129 46.9727 Q15.6738 46.9727 15.6738 26.5137 Q15.6738 6.0059 30.5176 6.0059 Z"
        /><glyph unicode="l" horiz-adv-x="28.90625" d="M9.6191 0 L9.6191 77.0996 L19.2383 77.0996 L19.2383 0 Z"
        /><glyph unicode="i" horiz-adv-x="28.90625" d="M9.6191 0 L9.6191 53.0273 L19.2383 53.0273 L19.2383 0 ZM9.6191 62.6465 L9.6191 72.2656 L19.2383 72.2656 L19.2383 62.6465 Z"
        /><glyph unicode="F" horiz-adv-x="53.61328" d="M9.3262 0 L9.3262 72.2656 L49.707 72.2656 L49.707 64.5996 L19.5801 64.5996 L19.5801 40.3809 L44.873 40.3809 L44.873 32.8125 L19.5801 32.8125 L19.5801 0 Z"
        /><glyph unicode="B" horiz-adv-x="57.51953" d="M9.3262 0 L9.3262 72.2656 L28.0762 72.2656 Q38.916 72.2656 44.7021 68.1641 Q50.4883 64.0625 50.4883 56.3477 Q50.4883 43.2129 35.6445 37.6465 Q53.3691 32.2266 53.3691 18.0664 Q53.3691 9.2773 47.5098 4.6387 Q41.6504 0 30.6152 0 ZM19.4824 7.666 L21.582 7.666 Q32.8613 7.666 36.1816 9.082 Q42.5293 11.7676 42.5293 19.043 Q42.5293 25.4883 36.7676 29.7607 Q31.0059 34.0332 22.3633 34.0332 L19.4824 34.0332 ZM19.4824 40.5273 L22.7539 40.5273 Q30.957 40.5273 35.4736 44.043 Q39.9902 47.5586 39.9902 53.9551 Q39.9902 64.5996 23.4863 64.5996 L19.4824 64.5996 Z"
        /><glyph unicode="M" horiz-adv-x="86.13281" d="M9.3262 0 L9.3262 72.2656 L23.5352 72.2656 L43.5547 16.3574 L64.1602 72.2656 L76.8555 72.2656 L76.8555 0 L67.2852 0 L67.2852 58.7891 L47.3633 4.834 L37.4512 4.834 L18.1152 58.9355 L18.1152 0 Z"
        /><glyph unicode="S" horiz-adv-x="53.85742" d="M23.4863 -1.8066 Q16.2109 -1.8066 4.8828 1.3672 L4.8828 11.5234 Q17.0898 5.8594 24.9512 5.8594 Q31.0059 5.8594 34.6924 9.0332 Q38.3789 12.207 38.3789 17.3828 Q38.3789 21.6309 35.9619 24.6094 Q33.5449 27.5879 27.0508 31.25 L22.0703 34.1309 Q12.8418 39.4043 9.0576 44.0674 Q5.2734 48.7305 5.2734 54.9316 Q5.2734 63.2812 11.3281 68.6768 Q17.3828 74.0723 26.7578 74.0723 Q35.1074 74.0723 44.3848 71.2891 L44.3848 61.9141 Q32.959 66.4062 27.3438 66.4062 Q22.0215 66.4062 18.5547 63.5742 Q15.0879 60.7422 15.0879 56.4453 Q15.0879 52.832 17.627 50.0488 Q20.166 47.2656 26.9043 43.4082 L32.0801 40.4785 Q41.4551 35.1562 45.166 30.4199 Q48.877 25.6836 48.877 19.043 Q48.877 9.6191 41.9189 3.9062 Q34.9609 -1.8066 23.4863 -1.8066 Z"
        /><glyph unicode="A" horiz-adv-x="68.99414" d="M45.9473 27.6367 L33.6426 58.7891 L21.2891 27.6367 ZM56.7871 0 L48.9258 20.0195 L18.3105 20.0195 L10.3516 0 L0.8301 0 L29.4922 72.2656 L39.6484 72.2656 L67.8711 0 Z"
        /><glyph unicode="R" horiz-adv-x="63.23242" d="M9.3262 0 L9.3262 72.2656 L31.2012 72.2656 Q41.6016 72.2656 47.1436 67.6758 Q52.6855 63.0859 52.6855 54.3457 Q52.6855 39.8926 38.0859 33.8379 L62.207 0 L49.6094 0 L29.0527 30.5664 L19.4824 30.5664 L19.4824 0 ZM19.4824 38.2324 L22.8027 38.2324 Q42.1387 38.2324 42.1387 53.418 Q42.1387 64.5996 25.9277 64.5996 L19.4824 64.5996 Z"
        /><glyph unicode="E" horiz-adv-x="54.19922" d="M9.3262 0 L9.3262 72.2656 L49.707 72.2656 L49.707 64.5996 L19.5801 64.5996 L19.5801 41.4062 L44.8242 41.4062 L44.8242 33.8379 L19.5801 33.8379 L19.5801 7.666 L51.8066 7.666 L51.8066 0 Z"
        /><glyph unicode="n" horiz-adv-x="62.060547" d="M9.6191 0 L9.6191 53.0273 L19.2383 53.0273 L19.2383 43.0664 Q26.8555 54.1992 37.8906 54.1992 Q44.7754 54.1992 48.877 49.8291 Q52.9785 45.459 52.9785 38.0859 L52.9785 0 L43.3594 0 L43.3594 34.9609 Q43.3594 40.8691 41.626 43.3838 Q39.8926 45.8984 35.8887 45.8984 Q27.0508 45.8984 19.2383 34.3262 L19.2383 0 Z"
        /><glyph unicode="c" horiz-adv-x="51.220703" d="M30.3223 -1.2207 Q19.5801 -1.2207 12.5 6.7383 Q5.4199 14.6973 5.4199 26.8066 Q5.4199 39.7461 12.4268 46.9727 Q19.4336 54.1992 31.9824 54.1992 Q38.1836 54.1992 45.8496 52.4902 L45.8496 44.4336 Q37.6953 46.8262 32.5684 46.8262 Q25.1953 46.8262 20.7275 41.2842 Q16.2598 35.7422 16.2598 26.5137 Q16.2598 17.5781 20.8496 12.0605 Q25.4395 6.543 32.8613 6.543 Q39.4531 6.543 46.4355 9.9121 L46.4355 1.6113 Q37.1094 -1.2207 30.3223 -1.2207 Z"
        /><glyph unicode=" " horiz-adv-x="31.640625" d=""
        /><glyph unicode="V" horiz-adv-x="65.38086" d="M29.0527 0 L1.7578 72.2656 L12.0117 72.2656 L34.375 13.0859 L55.957 72.2656 L64.9414 72.2656 L38.7207 0 Z"
        /><glyph unicode="j" horiz-adv-x="30.419922" d="M-7.5195 -18.0176 L-7.5195 -10.4004 Q-0.7812 -13.2324 2.7344 -13.2324 Q7.8125 -13.2324 9.4727 -10.5957 Q11.1328 -7.959 11.1328 0 L11.1328 53.0273 L20.8008 53.0273 L20.8008 0 Q20.8008 -20.459 3.5156 -20.459 Q-1.6113 -20.459 -7.5195 -18.0176 ZM11.1328 62.6465 L11.1328 72.2656 L20.8008 72.2656 L20.8008 62.6465 Z"
        /><glyph unicode="a" horiz-adv-x="55.22461" d="M36.9629 6.7383 Q28.3203 -1.2207 20.3125 -1.2207 Q13.7207 -1.2207 9.375 2.9053 Q5.0293 7.0312 5.0293 13.3301 Q5.0293 22.0215 12.3291 26.6846 Q19.6289 31.3477 33.252 31.3477 L35.5469 31.3477 L35.5469 37.7441 Q35.5469 46.9727 26.0742 46.9727 Q18.457 46.9727 9.6191 42.2852 L9.6191 50.2441 Q19.3359 54.1992 27.832 54.1992 Q36.7188 54.1992 40.9424 50.1953 Q45.166 46.1914 45.166 37.7441 L45.166 13.7207 Q45.166 5.4688 50.2441 5.4688 Q50.8789 5.4688 52.0996 5.6641 L52.7832 0.3418 Q49.5117 -1.2207 45.5566 -1.2207 Q38.8184 -1.2207 36.9629 6.7383 ZM35.5469 11.9629 L35.5469 25.6836 L32.3242 25.7812 Q24.4141 25.7812 19.5312 22.7783 Q14.6484 19.7754 14.6484 14.8926 Q14.6484 11.4258 17.0898 9.0332 Q19.5312 6.6406 23.0469 6.6406 Q29.0527 6.6406 35.5469 11.9629 Z"
        /><glyph unicode="t" horiz-adv-x="37.402344" d="M25.5371 -1.2207 Q18.2129 -1.2207 14.1113 2.9785 Q10.0098 7.1777 10.0098 14.6484 L10.0098 45.8008 L3.3691 45.8008 L3.3691 53.0273 L10.0098 53.0273 L10.0098 62.6465 L19.6289 63.5742 L19.6289 53.0273 L33.4961 53.0273 L33.4961 45.8008 L19.6289 45.8008 L19.6289 16.4062 Q19.6289 6.0059 28.6133 6.0059 Q30.5176 6.0059 33.252 6.6406 L33.252 0 Q28.8086 -1.2207 25.5371 -1.2207 Z"
        /><glyph unicode="s" horiz-adv-x="50.976562" d="M23.6816 -1.2207 Q17.0898 -1.2207 7.666 1.8555 L7.666 10.6934 Q17.0898 6.0059 24.0723 6.0059 Q28.2227 6.0059 30.957 8.252 Q33.6914 10.498 33.6914 13.8672 Q33.6914 18.7988 26.0254 22.0215 L20.4102 24.4141 Q7.959 29.5898 7.959 39.3066 Q7.959 46.2402 12.8662 50.2197 Q17.7734 54.1992 26.3184 54.1992 Q30.7617 54.1992 37.3047 52.9785 L39.3066 52.5879 L39.3066 44.5801 Q31.25 46.9727 26.5137 46.9727 Q17.2363 46.9727 17.2363 40.2344 Q17.2363 35.8887 24.2676 32.9102 L28.9062 30.957 Q36.7676 27.6367 40.0391 23.9502 Q43.3105 20.2637 43.3105 14.7461 Q43.3105 7.7637 37.793 3.2715 Q32.2754 -1.2207 23.6816 -1.2207 Z"
        /><glyph unicode="-" horiz-adv-x="57.86133" d="M7.2266 25.293 L7.2266 32.5195 L50.5859 32.5195 L50.5859 25.293 Z"
        /><glyph unicode="H" horiz-adv-x="73.48633" d="M9.3262 0 L9.3262 72.2656 L19.5801 72.2656 L19.5801 41.7969 L53.9551 41.7969 L53.9551 72.2656 L64.209 72.2656 L64.209 0 L53.9551 0 L53.9551 34.1309 L19.5801 34.1309 L19.5801 0 Z"
      /></font
    ></defs
    ><g fill="rgb(201,231,183)" text-rendering="optimizeLegibility" font-family="&apos;Lucida Grande&apos;" stroke-linejoin="round" stroke="rgb(201,231,183)" stroke-width="0" stroke-miterlimit="0"
    ><rect x="467" y="10" clip-path="url(#clipPath1)" width="120" rx="10" ry="10" height="55" stroke="none"
    /></g
    ><g fill="rgb(140,161,128)" text-rendering="optimizeLegibility" font-family="&apos;Lucida Grande&apos;" stroke-linecap="butt" stroke="rgb(140,161,128)"
    ><rect x="467" y="10" clip-path="url(#clipPath1)" fill="none" width="119" rx="10" ry="10" height="54"
      /><rect x="566" y="17" clip-path="url(#clipPath1)" fill="none" width="16" rx="4" ry="4" height="9" stroke="black"
      /><text fill="black" x="495" xml:space="preserve" y="27" clip-path="url(#clipPath2)" stroke="none"
      >Filområder</text
      ><text fill="black" x="515" xml:space="preserve" y="42" clip-path="url(#clipPath2)" stroke="none"
      >SMB</text
      ><rect x="20" y="10" clip-path="url(#clipPath3)" fill="rgb(181,255,255)" width="206" height="135" stroke="none"
      /><line clip-path="url(#clipPath3)" fill="none" x1="20" x2="20" y1="20" y2="10" stroke="rgb(126,178,178)"
      /><line clip-path="url(#clipPath3)" fill="none" x1="20" x2="225" y1="10" y2="10" stroke="rgb(126,178,178)"
      /><line clip-path="url(#clipPath3)" fill="none" x1="225" x2="225" y1="10" y2="144" stroke="rgb(126,178,178)"
      /><line clip-path="url(#clipPath3)" fill="none" x1="225" x2="20" y1="144" y2="144" stroke="rgb(126,178,178)"
      /><line clip-path="url(#clipPath3)" fill="none" x1="20" x2="20" y1="144" y2="52" stroke="rgb(126,178,178)"
      /><line clip-path="url(#clipPath3)" fill="none" x1="20" x2="20" y1="32" y2="40" stroke="rgb(126,178,178)"
      /><rect x="10" y="20" clip-path="url(#clipPath3)" fill="rgb(162,229,229)" width="21" height="13" stroke="none"
      /><rect x="10" y="40" clip-path="url(#clipPath3)" fill="rgb(162,229,229)" width="21" height="13" stroke="none"
      /><rect x="10" y="20" clip-path="url(#clipPath3)" fill="none" width="20" height="12" stroke="rgb(126,178,178)"
      /><rect x="10" y="40" clip-path="url(#clipPath3)" fill="none" width="20" height="12" stroke="rgb(126,178,178)"
      /><text fill="black" x="109" xml:space="preserve" y="27" clip-path="url(#clipPath4)" stroke="none"
      >SEBRA</text
      ><rect x="92" y="70" clip-path="url(#clipPath5)" fill="rgb(181,255,255)" width="110" height="55" stroke="none"
      /><line clip-path="url(#clipPath5)" fill="none" x1="92" x2="92" y1="80" y2="70" stroke="rgb(126,178,178)"
      /><line clip-path="url(#clipPath5)" fill="none" x1="92" x2="201" y1="70" y2="70" stroke="rgb(126,178,178)"
      /><line clip-path="url(#clipPath5)" fill="none" x1="201" x2="201" y1="70" y2="124" stroke="rgb(126,178,178)"
      /><line clip-path="url(#clipPath5)" fill="none" x1="201" x2="92" y1="124" y2="124" stroke="rgb(126,178,178)"
      /><line clip-path="url(#clipPath5)" fill="none" x1="92" x2="92" y1="124" y2="112" stroke="rgb(126,178,178)"
      /><line clip-path="url(#clipPath5)" fill="none" x1="92" x2="92" y1="92" y2="100" stroke="rgb(126,178,178)"
      /><rect x="82" y="80" clip-path="url(#clipPath5)" fill="rgb(162,229,229)" width="21" height="13" stroke="none"
      /><rect x="82" y="100" clip-path="url(#clipPath5)" fill="rgb(162,229,229)" width="21" height="13" stroke="none"
      /><rect x="82" y="80" clip-path="url(#clipPath5)" fill="none" width="20" height="12" stroke="rgb(126,178,178)"
      /><rect x="82" y="100" clip-path="url(#clipPath5)" fill="none" width="20" height="12" stroke="rgb(126,178,178)"
      /><text fill="black" x="118" xml:space="preserve" y="87" clip-path="url(#clipPath6)" stroke="none"
      >SEBRA cron</text
      ><rect x="107" y="168" clip-path="url(#clipPath7)" fill="rgb(181,255,255)" width="120" height="55" stroke="none"
      /><line clip-path="url(#clipPath7)" fill="none" x1="107" x2="226" y1="180" y2="180" stroke="rgb(126,178,178)"
      /><rect x="107" y="168" clip-path="url(#clipPath7)" fill="none" width="119" height="54" stroke="rgb(126,178,178)"
      /><text fill="black" x="130" xml:space="preserve" y="193" clip-path="url(#clipPath8)" stroke="none"
      >stasjonsSVM</text
      ><rect x="323" y="10" clip-path="url(#clipPath9)" fill="rgb(201,231,183)" width="120" rx="10" ry="10" height="55" stroke="none"
      /><rect x="323" y="10" clip-path="url(#clipPath9)" fill="none" width="119" rx="10" ry="10" height="54"
      /><rect x="422" y="17" clip-path="url(#clipPath9)" fill="none" width="16" rx="4" ry="4" height="9" stroke="black"
      /><text fill="black" x="355" xml:space="preserve" y="27" clip-path="url(#clipPath10)" stroke="none"
      >Hjemme-</text
      ><text fill="black" x="358" xml:space="preserve" y="42" clip-path="url(#clipPath10)" stroke="none"
      >områder</text
    ></g
    ><g stroke-linecap="butt" font-size="13" text-rendering="optimizeLegibility"
    ><line y2="37" fill="none" x1="323" clip-path="url(#clipPath11)" x2="225" y1="37"
      /><line y2="37" fill="none" x1="232" clip-path="url(#clipPath12)" x2="225" y1="34"
      /><line y2="40" fill="none" x1="225" clip-path="url(#clipPath12)" x2="232" y1="37"
      /><line clip-path="url(#clipPath13)" fill="none" x1="335" x2="335" y1="64" y2="182" stroke-dasharray="2"
      /><line clip-path="url(#clipPath13)" fill="none" x1="335" x2="335" y1="182" y2="183" stroke-dasharray="2"
      /><line clip-path="url(#clipPath13)" fill="none" x1="335" x2="335" y1="183" y2="184" stroke-dasharray="2"
      /><line clip-path="url(#clipPath13)" fill="none" x1="335" x2="334" y1="184" y2="185" stroke-dasharray="2"
      /><line clip-path="url(#clipPath13)" fill="none" x1="334" x2="334" y1="185" y2="186" stroke-dasharray="2"
      /><line clip-path="url(#clipPath13)" fill="none" x1="334" x2="334" y1="186" y2="187" stroke-dasharray="2"
      /><line clip-path="url(#clipPath13)" fill="none" x1="334" x2="333" y1="187" y2="188" stroke-dasharray="2"
      /><line clip-path="url(#clipPath13)" fill="none" x1="333" x2="332" y1="188" y2="189" stroke-dasharray="2"
      /><line clip-path="url(#clipPath13)" fill="none" x1="332" x2="332" y1="189" y2="189" stroke-dasharray="2"
      /><line clip-path="url(#clipPath13)" fill="none" x1="332" x2="331" y1="189" y2="190" stroke-dasharray="2"
      /><line clip-path="url(#clipPath13)" fill="none" x1="331" x2="330" y1="190" y2="191" stroke-dasharray="2"
      /><line clip-path="url(#clipPath13)" fill="none" x1="330" x2="329" y1="191" y2="191" stroke-dasharray="2"
      /><line clip-path="url(#clipPath13)" fill="none" x1="329" x2="328" y1="191" y2="191" stroke-dasharray="2"
      /><line clip-path="url(#clipPath13)" fill="none" x1="328" x2="327" y1="191" y2="192" stroke-dasharray="2"
      /><line clip-path="url(#clipPath13)" fill="none" x1="327" x2="326" y1="192" y2="192" stroke-dasharray="2"
      /><line clip-path="url(#clipPath13)" fill="none" x1="326" x2="325" y1="192" y2="192" stroke-dasharray="2"
      /><line clip-path="url(#clipPath13)" fill="none" x1="325" x2="226" y1="192" y2="192" stroke-dasharray="2"
      /><line y2="192" fill="none" x1="233" clip-path="url(#clipPath14)" x2="226" y1="189"
      /><line y2="195" fill="none" x1="226" clip-path="url(#clipPath14)" x2="233" y1="192"
      /><line clip-path="url(#clipPath15)" fill="none" x1="154" x2="154" y1="124" y2="168" stroke-dasharray="2"
      /><line y2="124" fill="none" x1="157" clip-path="url(#clipPath16)" x2="154" y1="131"
      /><line y2="131" fill="none" x1="154" clip-path="url(#clipPath16)" x2="151" y1="124"
    /></g
  ></g
></svg
>
